<svg xmlns="http://www.w3.org/2000/svg" viewBox="0 0 48 48" width="48" height="48">
	<style>
		tspan { white-space:pre }
		.shp0 { fill: #9d9d9d } 
	</style>
	<path id="icon" class="shp0" d="M39.02 11.99L23.01 11.99L23.01 9.99L39.02 9.99L39.02 11.99ZM39.02 17.99L23.01 17.99L23.01 15.99L39.02 15.99L39.02 17.99ZM39.02 24L23.01 24L23.01 22L39.02 22L39.02 24ZM39.02 30L10.01 30L10.01 28L39.02 28L39.02 30ZM39.02 36L10.01 36L10.01 34L39.02 34L39.02 36ZM19 10.99C19.55 10.99 20 11.44 20 11.99L20 20.99C20 21.54 19.55 21.99 19 21.99L12 21.99C11.44 21.99 11 21.54 11 20.99L11 11.99C11 11.44 11.44 10.99 12 10.99L19 10.99M19 9.99L12 9.99C10.89 9.99 10 10.88 10 11.99L10 20.99C10 22.09 10.89 22.99 12 22.99L19 22.99C20.1 22.99 21 22.09 21 20.99L21 11.99C21 10.88 20.1 9.99 19 9.99L19 9.99ZM24.5 47C11.54 47 1 36.46 1 23.5C1 10.54 11.54 0 24.5 0C37.46 0 48 10.54 48 23.5C48 36.46 37.46 47 24.5 47ZM24.5 1C12.09 1 2 11.09 2 23.5C2 35.91 12.09 46 24.5 46C36.91 46 47 35.91 47 23.5C47 11.09 36.91 1 24.5 1Z" />
</svg>