<svg xmlns="http://www.w3.org/2000/svg" viewBox="0 0 23 26" width="23" height="26">
	<style>
		tspan { white-space:pre }
		.shp0 { fill: #ffffff;stroke: #afafaf } 
	</style>
	<path id="Rounded Rectangle 4" class="shp0" d="M16.88,5.1l-3.68,-3.68c-0.78,-0.78 -2.04,-0.78 -2.82,0l-3.71,3.71c-3.48,1.85 -5.85,5.5 -5.85,9.71c0,6.07 4.92,10.99 11,10.99c6.07,0 11,-4.92 11,-10.99c0,-4.24 -2.4,-7.91 -5.91,-9.74z" />
</svg>